{
  "meta": {
    "limit": 100,
    "next": "/api/v1/contest/?limit=100&offset=100",
    "offset": 0,
    "previous": 1,
    "total_count": 20983
  },
  "objects": [
    {
      "icon": "",
      "id": 12068175,
      "resource_id": 1,
      "event": "September Challenge 2018",
      "start": "2018-09-07T09:30:00",
      "end": "2018-09-17T09:30:00",
      "duration": 864000,
      "href": "https://www.codechef.com/SEPT18"
    }
  ]
}